15,30,26
55,5,29
31,52,27
60,12,31
8,56,27
13,52,36
6,68,30
21,24,28
56,39,36
55,54,26
16,22,41
4,18,35
28,18,26
26,27,27
55,45,13
55,20,19
55,60,16
30,60,16
20,65,12
50,35,19
30,25,23
15,10,20
10,20,19
20,40,12
15,60,17
45,20,11
45,10,18
45,30,17
35,40,16
41,37,16
40,60,21
35,69,23
53,52,11
65,55,14
5,5,16
11,14,18
6,38,16
47,47,13
37,31,14
57,29,18
36,26,18
12,24,13
24,58,19
62,77,20
49,73,25
67,5,25
57,68,15
47,16,25
49,11,18
49,42,13
53,43,14
57,48,23
15,47,16
14,37,11
26,35,15
18,24,22
25,24,20
22,27,11
25,21,12
18,18,17
41,49,10
35,17,7
25,30,3
20,50,5
10,43,9
30,5,8
5,30,2
45,65,9
65,35,3
65,20,6
64,42,9
63,65,8
2,60,5
20,20,8
40,25,9
42,7,5
24,12,5
23,3,7
2,48,1
49,58,10
27,43,9
63,23,2
53,12,6
32,12,7
17,34,3
27,69,10
15,77,9
37,47,6
37,56,5
44,17,9
46,13,8
61,52,3
56,37,6
11,31,7
26,52,9
31,67,3
15,19,1
22,22,2
19,21,10
20,26,9
